Project Part 2: Data Cleaning and Rough Draft
…
4. Clean dataset

seastar <- rcca_data |>
  filter(str_detect(Classcode, "star")) |>
  arrange(Year)

seastar

# A tibble: 27,883 × 14
   Site       Day Month  Year SurveyDate Transect Classcode      Amount Distance
   <chr>    <dbl> <dbl> <dbl> <chr>         <dbl> <chr>           <dbl>    <dbl>
 1 120 Reef     8    10  2006 8-Oct-06          1 bat star           13       30
 2 120 Reef     8    10  2006 8-Oct-06          1 giant spined …     15       30
 3 120 Reef     8    10  2006 8-Oct-06          1 short spined …      0       30
 4 120 Reef     8    10  2006 8-Oct-06          1 sunflower/sun…      0       30
 5 120 Reef     8    10  2006 8-Oct-06          2 bat star            5       30
 6 120 Reef     8    10  2006 8-Oct-06          2 giant spined …     19       30
 7 120 Reef     8    10  2006 8-Oct-06          2 short spined …      0       30
 8 120 Reef     8    10  2006 8-Oct-06          2 sunflower/sun…      0       30
 9 120 Reef     8    10  2006 8-Oct-06          3 bat star            9       30
10 120 Reef     8    10  2006 8-Oct-06          3 giant spined …     12       30
# ℹ 27,873 more rows
# ℹ 5 more variables: Latitude <dbl>, Longitude <dbl>, Depth_ft <dbl>,
#   Temp10m <dbl>, Visibility <dbl>

batstar <- seastar |>
  filter(Classcode == "bat star") |>
  arrange(Year)

batstar

# A tibble: 6,499 × 14
   Site         Day Month  Year SurveyDate Transect Classcode Amount Distance
   <chr>      <dbl> <dbl> <dbl> <chr>         <dbl> <chr>      <dbl>    <dbl>
 1 120 Reef       8    10  2006 8-Oct-06          1 bat star      13       30
 2 120 Reef       8    10  2006 8-Oct-06          2 bat star       5       30
 3 120 Reef       8    10  2006 8-Oct-06          3 bat star       9       30
 4 120 Reef       8    10  2006 8-Oct-06          4 bat star       6       30
 5 120 Reef       8    10  2006 8-Oct-06          5 bat star       2       30
 6 120 Reef       8    10  2006 8-Oct-06          6 bat star       0       30
 7 Breakwater    12    10  2006 12-Oct-06         1 bat star      50        5
 8 Breakwater    12    10  2006 12-Oct-06         2 bat star      50       28
 9 Breakwater    12    10  2006 12-Oct-06         3 bat star      20        4
10 Breakwater    12    10  2006 12-Oct-06         4 bat star      50       15
# ℹ 6,489 more rows
# ℹ 5 more variables: Latitude <dbl>, Longitude <dbl>, Depth_ft <dbl>,
#   Temp10m <dbl>, Visibility <dbl>

# Original data saved 
write.csv(batstar, 
          "~/Documents/STATS_210_Spring_25/Project/project_part2/data-raw/batstar.csv", 
          row.names = FALSE)

batstar_bw <- batstar |>
  select(Site, Year, SurveyDate, Classcode, Amount) |>
  filter(Site == "Breakwater")

batstar_bw

# A tibble: 162 × 5
   Site        Year SurveyDate Classcode Amount
   <chr>      <dbl> <chr>      <chr>      <dbl>
 1 Breakwater  2006 12-Oct-06  bat star      50
 2 Breakwater  2006 12-Oct-06  bat star      50
 3 Breakwater  2006 12-Oct-06  bat star      20
 4 Breakwater  2006 12-Oct-06  bat star      50
 5 Breakwater  2006 12-Oct-06  bat star      50
 6 Breakwater  2006 12-Oct-06  bat star      52
 7 Breakwater  2007 6-Jul-07   bat star      50
 8 Breakwater  2007 6-Jul-07   bat star      50
 9 Breakwater  2007 6-Jul-07   bat star      64
10 Breakwater  2007 6-Jul-07   bat star      50
# ℹ 152 more rows
…
batstar_mb <- batstar |>
  select(Site, Year, SurveyDate, Classcode, Amount) |>
  filter(Site == "MacAbee")

batstar_mb

# A tibble: 96 × 5
   Site     Year SurveyDate Classcode Amount
   <chr>   <dbl> <chr>      <chr>      <dbl>
 1 MacAbee  2006 25-Aug-06  bat star      50
 2 MacAbee  2006 25-Aug-06  bat star      50
 3 MacAbee  2006 25-Aug-06  bat star      50
 4 MacAbee  2006 25-Aug-06  bat star      23
 5 MacAbee  2006 25-Aug-06  bat star      41
 6 MacAbee  2006 25-Aug-06  bat star      24
 7 MacAbee  2007 29-Sep-07  bat star      50
 8 MacAbee  2007 29-Sep-07  bat star      11
 9 MacAbee  2007 29-Sep-07  bat star      50
10 MacAbee  2007 29-Sep-07  bat star      39
# ℹ 86 more rows
…
batstar_all <- bind_rows(batstar_bwAvg, batstar_mbAvg) |>
  arrange(Year)

batstar_all

# A tibble: 28 × 3
   Site        Year AverageAmount
   <chr>      <dbl>         <dbl>
 1 Breakwater  2006          45.3
 2 MacAbee     2006          39.7
 3 Breakwater  2007          46.8
 4 MacAbee     2007          35.5
 5 Breakwater  2008          50  
 6 MacAbee     2008          50  
 7 Breakwater  2009          48.2
 8 MacAbee     2009          46.5
 9 Breakwater  2010          49  
10 MacAbee     2010          55.2
# ℹ 18 more rows
…
# Clean data set number 1:
batstar_all

# A tibble: 28 × 3
   Site        Year AverageAmount
   <chr>      <dbl>         <dbl>
 1 Breakwater  2006          45.3
 2 MacAbee     2006          39.7
 3 Breakwater  2007          46.8
 4 MacAbee     2007          35.5
 5 Breakwater  2008          50  
 6 MacAbee     2008          50  
 7 Breakwater  2009          48.2
 8 MacAbee     2009          46.5
 9 Breakwater  2010          49  
10 MacAbee     2010          55.2
# ℹ 18 more rows
…
